<svg width="58" height="54" viewBox="0 0 58 54" fill="none" xmlns="http://www.w3.org/2000/svg">
<g filter="url(#filter0_d_234_515)">
<path d="M10.875 21L29 11L47.125 21L29 31L10.875 21Z" stroke="#00C2FF" stroke-width="3" stroke-linecap="round" stroke-linejoin="round"/>
<path d="M38.0625 43.5V26L29 21" stroke="#00C2FF" stroke-width="3" stroke-linecap="round" stroke-linejoin="round"/>
<path d="M44 22.7242V31.8113C44.0006 32.1051 43.8971 32.3896 43.7079 32.6143C42.5072 34.0349 37.6046 39.1251 29 39.1251C20.3954 39.1251 15.4928 34.0349 14.2921 32.6143C14.1029 32.3896 13.9994 32.1051 14 31.8113V22.7242" stroke="#00C2FF" stroke-width="3" stroke-linecap="round" stroke-linejoin="round"/>
</g>
<defs>
<filter id="filter0_d_234_515" x="0" y="-3" width="58" height="58" filterUnits="userSpaceOnUse" color-interpolation-filters="sRGB">
<feFlood flood-opacity="0" result="BackgroundImageFix"/>
<feColorMatrix in="SourceAlpha" type="matrix" values="0 0 0 0 0 0 0 0 0 0 0 0 0 0 0 0 0 0 127 0" result="hardAlpha"/>
<feOffset/>
<feGaussianBlur stdDeviation="4.5"/>
<feColorMatrix type="matrix" values="0 0 0 0 0 0 0 0 0 0.76 0 0 0 0 1 0 0 0 0.5 0"/>
<feBlend mode="normal" in2="BackgroundImageFix" result="effect1_dropShadow_234_515"/>
<feBlend mode="normal" in="SourceGraphic" in2="effect1_dropShadow_234_515" result="shape"/>
</filter>
</defs>
</svg>
